The Inverse Gamma Distribution • invgamma
…
# load tidyverse and related
library("tidyverse"); library("patchwork"); library("scales", warn.conflicts = FALSE)
theme_set(theme_minimal()); theme_update(panel.grid.minor = element_blank())

# load furrr for parallel computing
library("furrr"); furrr_options(seed = TRUE)
#  <furrr_options>
plan(multisession(workers = parallelly::availableCores()))

# set parameter values to test
n_grid <- 51
param_vals <- 10^seq(-4, 4, length.out = n_grid)
(param_grid <- expand_grid("shape" = param_vals, "rate" = param_vals))
#  # A tibble: 2,601 × 2
#      shape     rate
#      <dbl>    <dbl>
#   1 0.0001 0.0001  
#   2 0.0001 0.000145
#   3 0.0001 0.000209
#   4 0.0001 0.000302
#   5 0.0001 0.000437
#   6 0.0001 0.000631
#   7 0.0001 0.000912
#   8 0.0001 0.00132 
#   9 0.0001 0.00191 
#  10 0.0001 0.00275 
#  # ℹ 2,591 more rows
…
